{"pager":{"page":1,"pageCount":138,"total":6864,"pageSize":50,"nextPage":"https://hmis2.health.go.ug/hmis2/api/organisationUnits?page=2"},"organisationUnits":[{"level":5,"name":"01 Commando HC II","id":"Ugl9pT2K5B0","ancestors":[{"level":1,"name":"MOH - Uganda","id":"akV6429SUqu"},{"level":2,"name":"Northern Region","id":"pz9Uu65Irbg"},{"level":3,"name":"Otuke District","id":"aXjub1BYn1y"},{"level":4,"name":"Okwang Subcounty","id":"PrIDcobIQsW"}]},{"level":5,"name":"1Div Military HOSPITAL ","id":"ju47RHFxYjp","ancestors":[{"level":1,"name":"MOH - Uganda","id":"akV6429SUqu"},{"level":2,"name":"Central Region","id":"VA90IqaI4Ji"},{"level":3,"name":"Wakiso District","id":"aIahLLmtvgT"},{"level":4,"name":"Kakiri Subcounty","id":"UOGlWhl35aX"}]},{"level":5,"name":"303 Bregade HC II","id":"xYZq8eBXMrD","ancestors":[{"level":1,"name":"MOH - Uganda","id":"akV6429SUqu"},{"level":2,"name":"Central Region","id":"VA90IqaI4Ji"},{"level":3,"name":"Mubende District","id":"lzWuB6bCQeV"},{"level":4,"name":"Bagezza Subcounty","id":"aaCfJhBmGNy"}]},{"level":5,"name":"307 Bde-Kavera HC III","id":"nBDPw7Qhd7r","ancestors":[{"level":1,"name":"MOH - Uganda","id":"akV6429SUqu"},{"level":2,"name":"Western Region","id":"auJdpeHbeet"},{"level":3,"name":"Kasese District","id":"aa8xVDzSpte"},{"level":4,"name":"Kitswamba Subcounty","id":"DHWHrDD2bPf"}]},{"level":5,"name":"407 Brigade HC III","id":"WqIs7ciPmmO","ancestors":[{"level":1,"name":"MOH - Uganda","id":"akV6429SUqu"},{"level":2,"name":"Northern Region","id":"pz9Uu65Irbg"},{"level":3,"name":"Nakapiripirit District","id":"VuHCApXcMTm"},{"level":4,"name":"Moruita Subcounty","id":"a6WHMHqHS7a"}]},{"level":5,"name":"5Th  Military Division HOSPITAL","id":"auzuV39xOTU","ancestors":[{"level":1,"name":"MOH - Uganda","id":"akV6429SUqu"},{"level":2,"name":"Northern Region","id":"pz9Uu65Irbg"},{"level":3,"name":"Pader District","id":"aBrjuZk0W31"},{"level":4,"name":"Pader Subcounty","id":"uMZROveCZt0"}]},{"level":5,"name":"Aakum HC II","id":"J2JiemiIQvD","ancestors":[{"level":1,"name":"MOH - Uganda","id":"akV6429SUqu"},{"level":2,"name":"Eastern Region","id":"adZ6T35ve4h"},{"level":3,"name":"Katakwi District","id":"cSrCFjPKqcG"},{"level":4,"name":"Usuk Subcounty","id":"y1iun1mJXWa"}]},{"level":5,"name":"AAR Acacia Clinic HC II","id":"I6QbcVsphVT","ancestors":[{"level":1,"name":"MOH - Uganda","id":"akV6429SUqu"},{"level":2,"name":"Central Region","id":"VA90IqaI4Ji"},{"level":3,"name":"Kampala District","id":"aXmBzv61LbM"},{"level":4,"name":"Kampala Central Division","id":"zNdkt1W9dcu"}]},{"level":5,"name":"Aarapoo HC II","id":"aVQCbe80pl7","ancestors":[{"level":1,"name":"MOH - Uganda","id":"akV6429SUqu"},{"level":2,"name":"Eastern Region","id":"adZ6T35ve4h"},{"level":3,"name":"Serere District","id":"zJfpujxC1kD"},{"level":4,"name":"Pingire Subcounty","id":"tt9yUB7IjHC"}]},{"level":5,"name":"AAR Bugolobi branch HC II","id":"FbzPPH8fy5s","ancestors":[{"level":1,"name":"MOH - Uganda","id":"akV6429SUqu"},{"level":2,"name":"Central Region","id":"VA90IqaI4Ji"},{"level":3,"name":"Kampala District","id":"aXmBzv61LbM"},{"level":4,"name":"Nakawa Division","id":"kKEBeO1LL7S"}]},{"level":5,"name":"AAR City Centre branch HC II","id":"hE3E3nXNUjX","ancestors":[{"level":1,"name":"MOH - Uganda","id":"akV6429SUqu"},{"level":2,"name":"Central Region","id":"VA90IqaI4Ji"},{"level":3,"name":"Kampala District","id":"aXmBzv61LbM"},{"level":4,"name":"Kampala Central Division","id":"zNdkt1W9dcu"}]},{"level":5,"name":"AAR Clinic Bweyogerere HCII","id":"Ppyz6vwPpKi","ancestors":[{"level":1,"name":"MOH - Uganda","id":"akV6429SUqu"},{"level":2,"name":"Central Region","id":"VA90IqaI4Ji"},{"level":3,"name":"Wakiso District","id":"aIahLLmtvgT"},{"level":4,"name":"Kira Town Council","id":"l0LizWT16CQ"}]},{"level":5,"name":"AAR clinic  Freedom City HCII","id":"H9VMaF4vdmM","ancestors":[{"level":1,"name":"MOH - Uganda","id":"akV6429SUqu"},{"level":2,"name":"Central Region","id":"VA90IqaI4Ji"},{"level":3,"name":"Wakiso District","id":"aIahLLmtvgT"},{"level":4,"name":"Ssabagabo-Makindye Subcounty","id":"byvlp3p7dsR"}]},{"level":5,"name":"AAR Clinic HC II NR","id":"CZaixL46Cr9","ancestors":[{"level":1,"name":"MOH - Uganda","id":"akV6429SUqu"},{"level":2,"name":"Central Region","id":"VA90IqaI4Ji"},{"level":3,"name":"Kampala District","id":"aXmBzv61LbM"},{"level":4,"name":"Kampala Central Division","id":"zNdkt1W9dcu"}]},{"level":5,"name":"AAR Gulu Clinic","id":"b2LlvIFGc5U","ancestors":[{"level":1,"name":"MOH - Uganda","id":"akV6429SUqu"},{"level":2,"name":"Northern Region","id":"pz9Uu65Irbg"},{"level":3,"name":"Gulu District","id":"Gwk4wkLz7EW"},{"level":4,"name":"Laroo Division","id":"x7pZ9LvlBky"}]},{"level":5,"name":"AAR Kabalagala branch HC II","id":"pLkoHnX3Ukn","ancestors":[{"level":1,"name":"MOH - Uganda","id":"akV6429SUqu"},{"level":2,"name":"Central Region","id":"VA90IqaI4Ji"},{"level":3,"name":"Kampala District","id":"aXmBzv61LbM"},{"level":4,"name":"Makindye Division","id":"FbuhMjEaMXt"}]},{"level":5,"name":"AAR Makerere branch HC II","id":"KMKSbxhedfy","ancestors":[{"level":1,"name":"MOH - Uganda","id":"akV6429SUqu"},{"level":2,"name":"Central Region","id":"VA90IqaI4Ji"},{"level":3,"name":"Kampala District","id":"aXmBzv61LbM"},{"level":4,"name":"Kampala Central Division","id":"zNdkt1W9dcu"}]},{"level":5,"name":"AAR Ntinda branch HC II","id":"j1gpp563TOQ","ancestors":[{"level":1,"name":"MOH - Uganda","id":"akV6429SUqu"},{"level":2,"name":"Central Region","id":"VA90IqaI4Ji"},{"level":3,"name":"Kampala District","id":"aXmBzv61LbM"},{"level":4,"name":"Nakawa Division","id":"kKEBeO1LL7S"}]},{"level":5,"name":"Abaasa Health Care Clinic HC II","id":"E54nsqRq0My","ancestors":[{"level":1,"name":"MOH - Uganda","id":"akV6429SUqu"},{"level":2,"name":"Western Region","id":"auJdpeHbeet"},{"level":3,"name":"Isingiro District","id":"UaR7OHycj8c"},{"level":4,"name":"Kikagati Subcounty","id":"KQCblChIrTo"}]},{"level":5,"name":"Abaita Medical Centre Clinic","id":"gqBr1S7L6yG","ancestors":[{"level":1,"name":"MOH - Uganda","id":"akV6429SUqu"},{"level":2,"name":"Central Region","id":"VA90IqaI4Ji"},{"level":3,"name":"Wakiso District","id":"aIahLLmtvgT"},{"level":4,"name":"Katabi Subcounty","id":"TMJdZnNOFfa"}]},{"level":5,"name":"Abako-Elim HC II","id":"etPrOnArvd1","ancestors":[{"level":1,"name":"MOH - Uganda","id":"akV6429SUqu"},{"level":2,"name":"Northern Region","id":"pz9Uu65Irbg"},{"level":3,"name":"Alebtong District","id":"p7EEgDEX3jT"},{"level":4,"name":"Awei Subcounty","id":"RHEU4J1wJiy"}]},{"level":5,"name":"Abako HC III","id":"yDPmjwoOIxi","ancestors":[{"level":1,"name":"MOH - Uganda","id":"akV6429SUqu"},{"level":2,"name":"Northern Region","id":"pz9Uu65Irbg"},{"level":3,"name":"Alebtong District","id":"p7EEgDEX3jT"},{"level":4,"name":"Abako Subcounty","id":"i8gkuINdorl"}]},{"level":5,"name":"Abala  HC II","id":"E9a1cflRJZf","ancestors":[{"level":1,"name":"MOH - Uganda","id":"akV6429SUqu"},{"level":2,"name":"Northern Region","id":"pz9Uu65Irbg"},{"level":3,"name":"Lira District","id":"Lj8t70RYnEt"},{"level":4,"name":"Agweng Subcounty","id":"FNqGR9apfAN"}]},{"level":5,"name":"Abala HCIII","id":"qFatFYmkDtx","ancestors":[{"level":1,"name":"MOH - Uganda","id":"akV6429SUqu"},{"level":2,"name":"Northern Region","id":"pz9Uu65Irbg"},{"level":3,"name":"Lira District","id":"Lj8t70RYnEt"},{"level":4,"name":"Agweng Subcounty","id":"FNqGR9apfAN"}]},{"level":5,"name":"Abalang  Dokolo HC II","id":"UjMKFe4MIGj","ancestors":[{"level":1,"name":"MOH - Uganda","id":"akV6429SUqu"},{"level":2,"name":"Northern Region","id":"pz9Uu65Irbg"},{"level":3,"name":"Dokolo District","id":"wMQ25dybdgH"},{"level":4,"name":"Okwalongwen Subcounty","id":"lbIyDdBijdD"}]},{"level":5,"name":"Abalang HC II","id":"aQrkHdMfe12","ancestors":[{"level":1,"name":"MOH - Uganda","id":"akV6429SUqu"},{"level":2,"name":"Eastern Region","id":"adZ6T35ve4h"},{"level":3,"name":"Kaberamaido District","id":"QoRZB7xc3j9"},{"level":4,"name":"Anyara Subcounty","id":"t89pNBmJnKW"}]},{"level":5,"name":"Abanya HCII","id":"hPIXVP3f1nP","ancestors":[{"level":1,"name":"MOH - Uganda","id":"akV6429SUqu"},{"level":2,"name":"Northern Region","id":"pz9Uu65Irbg"},{"level":3,"name":"Oyam District","id":"xpIFdCMhVHG"},{"level":4,"name":"Acaba Subcounty","id":"amLhY9BnViS"}]},{"level":5,"name":"Abarilela HC III","id":"IswqGyDbcgm","ancestors":[{"level":1,"name":"MOH - Uganda","id":"akV6429SUqu"},{"level":2,"name":"Eastern Region","id":"adZ6T35ve4h"},{"level":3,"name":"Amuria District","id":"TM6ccNxawqy"},{"level":4,"name":"Abarilela Subcounty","id":"YjjiR3pf7GD"}]},{"level":5,"name":"ABBU Clinic ","id":"eqXcVOLqXPI","ancestors":[{"level":1,"name":"MOH - Uganda","id":"akV6429SUqu"},{"level":2,"name":"Western Region","id":"auJdpeHbeet"},{"level":3,"name":"Kyenjojo District","id":"O9MoQcpZ4uA"},{"level":4,"name":"Butunduuzi Town Council","id":"VzNo51e77c5"}]},{"level":5,"name":"ABC Maternity Home - NR","id":"aqVk5wVqyQf","ancestors":[{"level":1,"name":"MOH - Uganda","id":"akV6429SUqu"},{"level":2,"name":"Central Region","id":"VA90IqaI4Ji"},{"level":3,"name":"Kayunga District","id":"ykxQEnZGXkj"},{"level":4,"name":"Kangulumira Subcounty","id":"eN59rRkxQhi"}]},{"level":5,"name":"Abednego Medical Centre HC II","id":"yVYFwnN6Cnd","ancestors":[{"level":1,"name":"MOH - Uganda","id":"akV6429SUqu"},{"level":2,"name":"Western Region","id":"auJdpeHbeet"},{"level":3,"name":"Kamwenge District","id":"uCVQXAdKqL9"},{"level":4,"name":"Nyabbani Subcounty","id":"lmgYdspcL6p"}]},{"level":5,"name":"Abedober HC III","id":"YhPJwSvxDcC","ancestors":[{"level":1,"name":"MOH - Uganda","id":"akV6429SUqu"},{"level":2,"name":"Northern Region","id":"pz9Uu65Irbg"},{"level":3,"name":"Apac District","id":"JyZJhGXKeEq"},{"level":4,"name":"Abongomola Subcounty","id":"mhMXhrnEHGU"}]},{"level":5,"name":"Abei HC II","id":"BRYcaY1oeHd","ancestors":[{"level":1,"name":"MOH - Uganda","id":"akV6429SUqu"},{"level":2,"name":"Northern Region","id":"pz9Uu65Irbg"},{"level":3,"name":"Apac District","id":"JyZJhGXKeEq"},{"level":4,"name":"Chawente Subcounty","id":"s8bn45A31mu"}]},{"level":5,"name":"Abeko HC II GOVT","id":"UiGav1NitiR","ancestors":[{"level":1,"name":"MOH - Uganda","id":"akV6429SUqu"},{"level":2,"name":"Eastern Region","id":"adZ6T35ve4h"},{"level":3,"name":"Amuria District","id":"TM6ccNxawqy"},{"level":4,"name":"Ogolai Subcounty","id":"p1iOb5SBsBd"}]},{"level":5,"name":"Abeko HC II NGO","id":"o7CJeTwDapk","ancestors":[{"level":1,"name":"MOH - Uganda","id":"akV6429SUqu"},{"level":2,"name":"Eastern Region","id":"adZ6T35ve4h"},{"level":3,"name":"Amuria District","id":"TM6ccNxawqy"},{"level":4,"name":"Ogolai Subcounty","id":"p1iOb5SBsBd"}]},{"level":5,"name":"Abela HC II","id":"i783Z5CHxyj","ancestors":[{"level":1,"name":"MOH - Uganda","id":"akV6429SUqu"},{"level":2,"name":"Northern Region","id":"pz9Uu65Irbg"},{"level":3,"name":"Oyam District","id":"xpIFdCMhVHG"},{"level":4,"name":"Aleka Subcounty","id":"BXgAR3Kq8kv"}]},{"level":5,"name":"Aber HC II","id":"A9Bt9vywHbP","ancestors":[{"level":1,"name":"MOH - Uganda","id":"akV6429SUqu"},{"level":2,"name":"Northern Region","id":"pz9Uu65Irbg"},{"level":3,"name":"Oyam District","id":"xpIFdCMhVHG"},{"level":4,"name":"Aber Subcounty","id":"xuuOj2eAPqb"}]},{"level":5,"name":"Aber Hospital","id":"cDGKAJzfkpf","ancestors":[{"level":1,"name":"MOH - Uganda","id":"akV6429SUqu"},{"level":2,"name":"Northern Region","id":"pz9Uu65Irbg"},{"level":3,"name":"Oyam District","id":"xpIFdCMhVHG"},{"level":4,"name":"Kamdini Subcountry","id":"HtZQp7J8zCH"}]},{"level":5,"name":"Aber Ngo HOSPITAL","id":"k6FJAEApm87","ancestors":[{"level":1,"name":"MOH - Uganda","id":"akV6429SUqu"},{"level":2,"name":"Northern Region","id":"pz9Uu65Irbg"},{"level":3,"name":"Oyam District","id":"xpIFdCMhVHG"},{"level":4,"name":"Aber Subcounty","id":"xuuOj2eAPqb"}]},{"level":5,"name":"Abesiga Mukama  Domiciliary Maternity ","id":"qvXqsKHH1LH","ancestors":[{"level":1,"name":"MOH - Uganda","id":"akV6429SUqu"},{"level":2,"name":"Western Region","id":"auJdpeHbeet"},{"level":3,"name":"Kagadi District","id":"orgY0d5MJa9"},{"level":4,"name":"Mabaale Subcounty","id":"NJBN4GJd1Q5"}]},{"level":5,"name":"Abesiga Mukama HC II-NR","id":"CXNSGgNcBpL","ancestors":[{"level":1,"name":"MOH - Uganda","id":"akV6429SUqu"},{"level":2,"name":"Central Region","id":"VA90IqaI4Ji"},{"level":3,"name":"Mukono District","id":"a0DfYpC2Rwl"},{"level":4,"name":"Ntenjeru Subcounty","id":"QRDEYBjoQkE"}]},{"level":5,"name":"Abeso HC II","id":"ZubUtSX9erU","ancestors":[{"level":1,"name":"MOH - Uganda","id":"akV6429SUqu"},{"level":2,"name":"Northern Region","id":"pz9Uu65Irbg"},{"level":3,"name":"Moyo District","id":"W0kQBddyGyh"},{"level":4,"name":"Metu Subcounty","id":"aCaPqIkvV2s"}]},{"level":5,"name":"Abi Clinic","id":"KUFnXlL4bk3","ancestors":[{"level":1,"name":"MOH - Uganda","id":"akV6429SUqu"},{"level":2,"name":"Central Region","id":"VA90IqaI4Ji"},{"level":3,"name":"Kampala District","id":"aXmBzv61LbM"},{"level":4,"name":"Kawempe Division","id":"LYuMx5oPsR5"}]},{"level":5,"name":"Abigail Medical Centre HCII","id":"t15uLLkZzQR","ancestors":[{"level":1,"name":"MOH - Uganda","id":"akV6429SUqu"},{"level":2,"name":"Central Region","id":"VA90IqaI4Ji"},{"level":3,"name":"Wakiso District","id":"aIahLLmtvgT"},{"level":4,"name":"Wakiso Town Council","id":"PaitbhdeU8f"}]},{"level":5,"name":"Abilonino HC II","id":"aGfndLfPcOz","ancestors":[{"level":1,"name":"MOH - Uganda","id":"akV6429SUqu"},{"level":2,"name":"Northern Region","id":"pz9Uu65Irbg"},{"level":3,"name":"Agago District","id":"ztIyIYAzFKp"},{"level":4,"name":"Lapono Subcounty","id":"qUDCFxUq4uw"}]},{"level":5,"name":"Abim HOSPITAL","id":"RxPKxSBe0DC","ancestors":[{"level":1,"name":"MOH - Uganda","id":"akV6429SUqu"},{"level":2,"name":"Northern Region","id":"pz9Uu65Irbg"},{"level":3,"name":"Abim District","id":"NREoMszwQZW"},{"level":4,"name":"Abim Town Council","id":"SVXuVZuvsit"}]},{"level":5,"name":"Abim Obolokome HC II","id":"ltIECAx2ppI","ancestors":[{"level":1,"name":"MOH - Uganda","id":"akV6429SUqu"},{"level":2,"name":"Northern Region","id":"pz9Uu65Irbg"},{"level":3,"name":"Abim District","id":"NREoMszwQZW"},{"level":4,"name":"Morulem Subcounty","id":"YeM7sYuP1xa"}]},{"level":5,"name":"Abirabira HC II","id":"LvFBfRqhgKN","ancestors":[{"level":1,"name":"MOH - Uganda","id":"akV6429SUqu"},{"level":2,"name":"Eastern Region","id":"adZ6T35ve4h"},{"level":3,"name":"Kaberamaido District","id":"QoRZB7xc3j9"},{"level":4,"name":"Aperikira Subcounty","id":"R7ff2hyU6vl"}]},{"level":5,"name":"Abiriamajo HC II","id":"RnXpcMWI5Zu","ancestors":[{"level":1,"name":"MOH - Uganda","id":"akV6429SUqu"},{"level":2,"name":"Northern Region","id":"pz9Uu65Irbg"},{"level":3,"name":"Yumbe District","id":"W1JM2Qdhcv3"},{"level":4,"name":"Odravu Subcounty","id":"apKpog39DlX"}]},{"level":5,"name":"Abison Medical Clinic-NR","id":"YTBLK7mhWSM","ancestors":[{"level":1,"name":"MOH - Uganda","id":"akV6429SUqu"},{"level":2,"name":"Central Region","id":"VA90IqaI4Ji"},{"level":3,"name":"Wakiso District","id":"aIahLLmtvgT"},{"level":4,"name":"Ssabagabo-Makindye Subcounty","id":"byvlp3p7dsR"}]}]}